:020000040000FA
:020000000528D1
:080008001128E32083160730E4
:10001000810083123D30810028308C00A0308B009D
:1000200010283D3081008C0B1A2828308C00F220DB
:10003000EB201C200B1109001108112191009B20BD
:100040007030A9200301A9204730A920BA304220EE
:10005000A920931F352811084020A920110E402007
:10006000A9202D304220A9203F2812084020A92095
:10007000110840208038A920110E4020A920080036
:100080000F39303E8D00203C031900340D08D13C5F
:10009000031955340D08BA3C031963340D085A3C52
:1000A000031C80342B300D02031C8034820746343D
:1000B00004344034803400343F3406345B344F34ED
:1000C00066346D347D3407347F346734413488348A
:1000D0000034483400340034003477347C3439340C
:1000E0005E34793471346F34763419341E347A3492
:1000F0003834373454343F347334673450346D34C7
:1001000078341C343E341D3470346E3449348316D4
:1001100005128312051208008316051683120800C3
:1001200083168511831285110800831685158312A5
:10013000851D982808008C2095202A2187202A21B7
:1001400090202A210800872095202A218C202A210E
:1001500008008F0008308E008F0D0318B12887200B
:10016000B2288C2095202A2190202A218E0BAC28A1
:100170008C2095202A2190202A21080008308E000A
:100180008C2095200310051A03148F0D90202A212E
:100190008E0BC128101C872095202A2190202A210F
:1001A0000F0808008207003401340134023403349C
:1001B0000334043404340534063406340734083474
:1001C0000834093409349B209030A920AC30A92090
:1001D0004B30A920A3209B209030A920EE30A920ED
:1001E000A320080010109B209030A920AA30A9203D
:1001F0009B209130A920BE2091001014BE209200B7
:10020000A3209301911F0B299309920991090130B1
:1002100092070318910A120E0F39D220920011088A
:1002200008009401950196000A301602031C21294A
:100230009600950A0A301502031C14299501940AA8
:100240001429150E16070800000000000000000029
:100250000000000008000000A430372900004030F2
:1002600037291F30372900000E3037290530970015
:10027000970B38290800C8304A2964304A2932309F
:100280004A2914304A290A304A2905304A290230BD
:100290004A2901309800F93097000000970B4D294A
:1002A000980B4B290800C8305E2964305E29323033
:1002B0005E2914305E290A305E29053099006430C9
:1002C0009800F93097000000970B6329980B61297B
:0602D000990B5F290800F4
:02400E00F13F80
:00000001FF
