:020000040000FA
:10000000102048305720D3206F305720D3206C3039
:100010005720D32061305720D3205220D3200128ED
:100020008316051005118510831285100511051022
:10003000B72030302A20BB2030302A20A420303096
:100040002A20AC2020302A20AC20542052205020DE
:100050003E200800F0398C0006080F398C04831606
:1000600006088E000F30860583120C0886000515E1
:10007000051183160E0886008312080006305528E5
:1000800080305528C030552894305528D430552814
:1000900080385528C0385528083055280E30552846
:1000A0000C305528013055282830051059280514E2
:1000B00061208D002A200D0E2A20051CBD20A920BC
:1000C00008008C00F13C031D6828EE308C00752878
:1000D0000C08D13C031D6F28EE308C0075280C08ED
:1000E000BA3C031D7528DF308C000C080800103066
:1000F0007E2801307E2802307E2803308F00203099
:1001000057208F0B7F2808009000F039031D8C28A2
:10011000203057208E289000100E8F2010080F39A5
:100120008F00093C031C97280F08303E99280F08C0
:10013000373E5728000000000000000000000000CB
:1001400008000000A430AD2800004030AD281F306A
:10015000AD2800000E30AD2805309100910BAE287F
:100160000800C830C0286430C0283230C02814309D
:10017000C0280A30C0280530C0280230C02801300D
:100180009200F93091000000910BC328920BC12816
:100190000800C830D4286430D4283230D428143031
:1001A000D4280A30D4280530930064309200F93006
:1001B00091000000910BD928920BD728930BD528DA
:0201C000080035
:02400E00F13F80
:00000001FF
