:020000040000FA
:1000000083168601051683121220051A0D287B20FF
:10001000051A0D280E20051E0B2805288C0A0A300B
:100020000C0203188C010C081720860008000F39F9
:10003000303E8D00203C031900340D08D13C0319DB
:1000400055340D08BA3C031963340D085A3C031C9F
:1000500080342B300D02031C803482074634043474
:100060004034803400343F3406345B344F346634DB
:100070006D347D3407347F34673441348834003440
:10008000483400340034003477347C3439345E34FE
:10009000793471346F34763419341E347A34383408
:1000A000373454343F347334673450346D347834D7
:1000B0001C343E341D3470346E344934000000006A
:1000C000000000000000000008000000A4307128BB
:1000D0000000403071281F30712800000E30712858
:1000E00005308E008E0B72280800C83084286430DA
:1000F000842832308428143084280A30842805303B
:1001000084280230842801308F00F9308E000000EE
:100110008E0B87288F0B85280800C83098286430FC
:10012000982832309828143098280A3098280530BA
:10013000900064308F00F9308E0000008E0B9D28F7
:0A0140008F0B9B28900B99280800F4
:02400E00F13F80
:00000001FF
